Analysis and figures for poster presented at ESCOP 2019
…
A few items were apparently more difficult, especially hairspray:

d_match$Error <- ifelse(d_match$Score == 1, 0, 1)
d_match %>% group_by(TargetWord) %>% 
  summarise(NbErrors = sum(Error)) %>%
  arrange(- NbErrors) %>%
  print(n = 5)

## # A tibble: 30 x 2
##   TargetWord NbErrors
##   <fct>         <dbl>
## 1 hairspray        10
## 2 flute             5
## 3 clarinet          3
## 4 button            1
## 5 coconut           1
## # ... with 25 more rows
…
