First-pass analyses
…
There were some items that elicited a large number of errors, especially hairspray:

d_match %>% group_by(TargetWord) %>% 
  summarise(NbErrors = sum(Error)) %>%
  arrange(- NbErrors) %>%
  print(n = 12)

## # A tibble: 30 x 2
##    TargetWord     NbErrors
##    <fct>             <dbl>
##  1 hairspray            10
##  2 flute                 5
##  3 clarinet              3
##  4 button                1
##  5 coconut               1
##  6 cucumber slice        1
##  7 orange                1
##  8 paint brush           1
##  9 paint can             1
## 10 soda can              1
## 11 toast                 1
## 12 apple                 0
## # ... with 18 more rows
…
For some participants (e.g., 23 or 22) data loss is quite substantial.

We can actually break it down by Language to see if some cases become even more extreme then:

d_infe %>%
  mutate(Error = ifelse(Score == 0, 1, 0)) %>%
  group_by(Subject, Language) %>%
  summarise(nbErrors = sum(Error), nbObs = n()) %>%
  mutate(dataLossPerc = round(100 * nbErrors / nbObs)) %>%
  arrange(-nbErrors) %>%
  select(Subject, Language, nbErrors, dataLossPerc)

## # A tibble: 48 x 4
## # Groups:   Subject [24]
##    Subject Language nbErrors dataLossPerc
##    <fct>   <chr>       <dbl>        <dbl>
##  1 23      L1             12           50
##  2 14      L1             11           46
##  3 23      L2             10           42
##  4 22      L1             10           42
##  5 19      L2              9           38
##  6 24      L1              9           38
##  7 12      L1              7           29
##  8 9       L2              6           25
##  9 20      L1              6           25
## 10 2       L2              6           25
## # ... with 38 more rows
…
In any case, it makes sense to exclude incorrect trials from further analysis:

d_infe_corr <- d_infe %>% filter(Score == 1)

5.2.3.2 Items (inference patterns):

d_infe %>%
  mutate(Error = ifelse(Score == 0, 1, 0)) %>%
  group_by(InferPattern, Type) %>%
  summarise(nbErrors = sum(Error), nbObs = n()) %>%
  mutate(dataLossPerc = round(100 * nbErrors / nbObs)) %>%
  arrange(-nbErrors) %>%
  select(InferPattern, nbErrors, dataLossPerc)

## # A tibble: 24 x 3
## # Groups:   InferPattern [8]
##    InferPattern                 nbErrors dataLossPerc
##    <chr>                           <dbl>        <dbl>
##  1 1) B-r-A; 2) B-R-C; 3) C-r-A       13           27
##  2 1) A-r-B; 2) C-R-B; 3) A-r-C       12           25
##  3 1) A-r-C; 2) A-R-B; 3) C-r-B       12           25
##  4 1) A-r-B; 2) A-R-C; 3) C-r-B       10           21
##  5 1) A-r-B; 2) A-R-C; 3) C-r-B       10           21
##  6 1) A-r-B; 2) C-R-B; 3) A-r-C       10           21
##  7 1) B-r-A; 2) C-R-A; 3) B-r-C       10           21
##  8 1) A-r-B; 2) C-R-B; 3) A-r-C        8           17
##  9 1) B-r-A; 2) B-R-C; 3) C-r-A        8           17
## 10 1) B-r-C; 2) B-R-A; 3) C-r-A        8           17
## # ... with 14 more rows
…
For AMLaP abstract:

# NB: We remove control condition, for clarity.
rt_subj_amlap <- rt_subj %>% filter(Type != "Control") 
rt_subj_amlap

## # A tibble: 96 x 4
## # Groups:   Subject, Language [48]
##    Subject Language Type       logRT
##    <fct>   <chr>    <chr>      <dbl>
##  1 1       L1       Spatial -0.475  
##  2 1       L1       Visual  -0.749  
##  3 1       L2       Spatial  0.245  
##  4 1       L2       Visual   0.470  
##  5 6       L1       Spatial  0.556  
##  6 6       L1       Visual   0.373  
##  7 6       L2       Spatial -0.00250
##  8 6       L2       Visual   0.0806 
##  9 8       L1       Spatial  0.514  
## 10 8       L1       Visual   0.379  
## # ... with 86 more rows
…
